{
  "project_info": {
    "project_number": "256442634945",
    "firebase_url": "https://shinplepush-5800a.firebaseio.com",
    "project_id": "shinplepush-5800a",
    "storage_bucket": "shinplepush-5800a.appspot.com"
  },
  "client": [
    {
      "client_info": {
        "mobilesdk_app_id": "1:256442634945:android:4152e17c87bfe325",
        "android_client_info": {
          "package_name": "com.example.shinple"
        }
      },
      "oauth_client": [
        {
          "client_id": "256442634945-q03bemch7851qoek0la2o1f3v9skdc21.apps.googleusercontent.com",
          "client_type": 1,
          "android_info": {
            "package_name": "com.example.shinple",
            "certificate_hash": "66199f6a3ec6cda4caac5c6079c2ab879205d0fa"
          }
        },
        {
          "client_id": "256442634945-f5s0s6nu5m3c820jruru6lagdrjbvtr0.apps.googleusercontent.com",
          "client_type": 3
        }
      ],
      "api_key": [
        {
          "current_key": "AIzaSyBUcbYm-OrW8wp80qlqOQFFxLgguM3NUz0"
        }
      ],
      "services": {
        "appinvite_service": {
          "other_platform_oauth_client": [
            {
              "client_id": "256442634945-f5s0s6nu5m3c820jruru6lagdrjbvtr0.apps.googleusercontent.com",
              "client_type": 3
            }
          ]
        }
      }
    }
  ],
  "configuration_version": "1"
}