-- Merging decision tree log ---
manifest
ADDED from D:\android\App_Shinple\bmb\src\main\AndroidManifest.xml:2:1-21:12
INJECTED from D:\android\App_Shinple\bmb\src\main\AndroidManifest.xml:2:1-21:12
INJECTED from D:\android\App_Shinple\bmb\src\main\AndroidManifest.xml:2:1-21:12
INJECTED from D:\android\App_Shinple\bmb\src\main\AndroidManifest.xml:2:1-21:12
MERGED from [androidx.appcompat:appcompat:1.0.2] C:\Users\user\.gradle\caches\transforms-2\files-2.1\84a39e4acf97978b8330ab4f3cc95027\appcompat-1.0.2\AndroidManifest.xml:17:1-22:12
MERGED from [androidx.constraintlayout:constraintlayout:1.1.3] C:\Users\user\.gradle\caches\transforms-2\files-2.1\65d4ac6b508663c977f57b05ce33dd7a\constraintlayout-1.1.3\AndroidManifest.xml:2:1-11:12
MERGED from [com.nightonke:boommenu:2.1.1] C:\Users\user\.gradle\caches\transforms-2\files-2.1\320fbabca307cef5beb99e75f359f944\boommenu-2.1.1\AndroidManifest.xml:2:1-16:12
MERGED from [androidx.fragment:fragment:1.0.0] C:\Users\user\.gradle\caches\transforms-2\files-2.1\2d68708550dd45338a0630b5664e74c1\fragment-1.0.0\AndroidManifest.xml:17:1-22:12
MERGED from [androidx.vectordrawable:vectordrawable-animated:1.0.0] C:\Users\user\.gradle\caches\transforms-2\files-2.1\6fe0a8d0f48f5ccc8a978a00f9a131e3\vectordrawable-animated-1.0.0\AndroidManifest.xml:17:1-22:12
MERGED from [androidx.legacy:legacy-support-core-ui:1.0.0] C:\Users\user\.gradle\caches\transforms-2\files-2.1\aa69288ac250be695d760707016eb137\legacy-support-core-ui-1.0.0\AndroidManifest.xml:17:1-22:12
MERGED from [androidx.legacy:legacy-support-core-utils:1.0.0] C:\Users\user\.gradle\caches\transforms-2\files-2.1\a2ac6ff7fcd75d66c466cbf74b5e0977\legacy-support-core-utils-1.0.0\AndroidManifest.xml:17:1-22:12
MERGED from [androidx.vectordrawable:vectordrawable:1.0.1] C:\Users\user\.gradle\caches\transforms-2\files-2.1\d7db156ee1a9df78f41d7ea2c6ac8799\vectordrawable-1.0.1\AndroidManifest.xml:17:1-22:12
MERGED from [androidx.loader:loader:1.0.0] C:\Users\user\.gradle\caches\transforms-2\files-2.1\b336d1f04fa96d7791d186703c4b5e48\loader-1.0.0\AndroidManifest.xml:17:1-22:12
MERGED from [androidx.viewpager:viewpager:1.0.0] C:\Users\user\.gradle\caches\transforms-2\files-2.1\5c681314389bb6f99806e8b09b0fc3d7\viewpager-1.0.0\AndroidManifest.xml:17:1-22:12
MERGED from [androidx.coordinatorlayout:coordinatorlayout:1.0.0] C:\Users\user\.gradle\caches\transforms-2\files-2.1\ba4615a94a7dad2fec0135d090f8e94a\coordinatorlayout-1.0.0\AndroidManifest.xml:17:1-22:12
MERGED from [androidx.drawerlayout:drawerlayout:1.0.0] C:\Users\user\.gradle\caches\transforms-2\files-2.1\d1b9d599a9ad57940838fc271d622781\drawerlayout-1.0.0\AndroidManifest.xml:17:1-22:12
MERGED from [androidx.slidingpanelayout:slidingpanelayout:1.0.0] C:\Users\user\.gradle\caches\transforms-2\files-2.1\d1587ca6d288dd6186d29ddc61c0d53d\slidingpanelayout-1.0.0\AndroidManifest.xml:17:1-22:12
MERGED from [androidx.customview:customview:1.0.0] C:\Users\user\.gradle\caches\transforms-2\files-2.1\cc44a1dc5c1ee36c4b15c220a66af9a9\customview-1.0.0\AndroidManifest.xml:17:1-22:12
MERGED from [androidx.swiperefreshlayout:swiperefreshlayout:1.0.0] C:\Users\user\.gradle\caches\transforms-2\files-2.1\09bcd126475fef88c077907553299c09\swiperefreshlayout-1.0.0\AndroidManifest.xml:17:1-22:12
MERGED from [androidx.asynclayoutinflater:asynclayoutinflater:1.0.0] C:\Users\user\.gradle\caches\transforms-2\files-2.1\11e3b9ed509609d71e516ae144b6049a\asynclayoutinflater-1.0.0\AndroidManifest.xml:17:1-22:12
MERGED from [androidx.core:core:1.0.1] C:\Users\user\.gradle\caches\transforms-2\files-2.1\cb35faa73e0de0a9b1b60e5f1c161b36\core-1.0.1\AndroidManifest.xml:17:1-24:12
MERGED from [androidx.versionedparcelable:versionedparcelable:1.0.0] C:\Users\user\.gradle\caches\transforms-2\files-2.1\04824058308b4636ae97f3e43d87960f\versionedparcelable-1.0.0\AndroidManifest.xml:17:1-25:12
MERGED from [androidx.cursoradapter:cursoradapter:1.0.0] C:\Users\user\.gradle\caches\transforms-2\files-2.1\0c7c84c7323d6ddfd4bfb4da2d345f93\cursoradapter-1.0.0\AndroidManifest.xml:17:1-22:12
MERGED from [androidx.lifecycle:lifecycle-runtime:2.0.0] C:\Users\user\.gradle\caches\transforms-2\files-2.1\17bbd9c554b0bbff0e21d86ee90011c6\lifecycle-runtime-2.0.0\AndroidManifest.xml:17:1-22:12
MERGED from [androidx.documentfile:documentfile:1.0.0] C:\Users\user\.gradle\caches\transforms-2\files-2.1\2ed27cdf03339aa6677bdf83642fd229\documentfile-1.0.0\AndroidManifest.xml:17:1-22:12
MERGED from [androidx.localbroadcastmanager:localbroadcastmanager:1.0.0] C:\Users\user\.gradle\caches\transforms-2\files-2.1\390865cfbff283803a888b45498cca2f\localbroadcastmanager-1.0.0\AndroidManifest.xml:17:1-22:12
MERGED from [androidx.print:print:1.0.0] C:\Users\user\.gradle\caches\transforms-2\files-2.1\50f1f889ccb073fa814729df00d55940\print-1.0.0\AndroidManifest.xml:17:1-22:12
MERGED from [androidx.lifecycle:lifecycle-viewmodel:2.0.0] C:\Users\user\.gradle\caches\transforms-2\files-2.1\c6bc9ed69d60287150ece3672a1e6e22\lifecycle-viewmodel-2.0.0\AndroidManifest.xml:17:1-22:12
MERGED from [androidx.lifecycle:lifecycle-livedata:2.0.0] C:\Users\user\.gradle\caches\transforms-2\files-2.1\0afdb6b988b3d5ba9edacc8dbbdba1b5\lifecycle-livedata-2.0.0\AndroidManifest.xml:17:1-22:12
MERGED from [androidx.lifecycle:lifecycle-livedata-core:2.0.0] C:\Users\user\.gradle\caches\transforms-2\files-2.1\8c0ea0338d4adfc31979d299a783a195\lifecycle-livedata-core-2.0.0\AndroidManifest.xml:17:1-22:12
MERGED from [androidx.arch.core:core-runtime:2.0.0] C:\Users\user\.gradle\caches\transforms-2\files-2.1\8807b796c5c6f7185f5e2bcf79836887\core-runtime-2.0.0\AndroidManifest.xml:17:1-22:12
MERGED from [androidx.interpolator:interpolator:1.0.0] C:\Users\user\.gradle\caches\transforms-2\files-2.1\b20c975e604faaf5e0a8a28a82435b32\interpolator-1.0.0\AndroidManifest.xml:17:1-22:12
INJECTED from D:\android\App_Shinple\bmb\src\main\AndroidManifest.xml:2:1-21:12
INJECTED from D:\android\App_Shinple\bmb\src\main\AndroidManifest.xml:2:1-21:12
INJECTED from D:\android\App_Shinple\bmb\src\main\AndroidManifest.xml:2:1-21:12
	package
		ADDED from D:\android\App_Shinple\bmb\src\main\AndroidManifest.xml:3:5-39
		INJECTED from D:\android\App_Shinple\bmb\src\main\AndroidManifest.xml
		INJECTED from D:\android\App_Shinple\bmb\src\main\AndroidManifest.xml
	android:versionName
		INJECTED from D:\android\App_Shinple\bmb\src\main\AndroidManifest.xml
		ADDED from D:\android\App_Shinple\bmb\src\main\AndroidManifest.xml:2:1-21:12
		INJECTED from D:\android\App_Shinple\bmb\src\main\AndroidManifest.xml
	android:versionCode
		INJECTED from D:\android\App_Shinple\bmb\src\main\AndroidManifest.xml
		ADDED from D:\android\App_Shinple\bmb\src\main\AndroidManifest.xml:2:1-21:12
		INJECTED from D:\android\App_Shinple\bmb\src\main\AndroidManifest.xml
	xmlns:android
		ADDED from D:\android\App_Shinple\bmb\src\main\AndroidManifest.xml:2:11-69
application
ADDED from D:\android\App_Shinple\bmb\src\main\AndroidManifest.xml:5:5-19:19
MERGED from [androidx.constraintlayout:constraintlayout:1.1.3] C:\Users\user\.gradle\caches\transforms-2\files-2.1\65d4ac6b508663c977f57b05ce33dd7a\constraintlayout-1.1.3\AndroidManifest.xml:9:5-20
MERGED from [androidx.constraintlayout:constraintlayout:1.1.3] C:\Users\user\.gradle\caches\transforms-2\files-2.1\65d4ac6b508663c977f57b05ce33dd7a\constraintlayout-1.1.3\AndroidManifest.xml:9:5-20
MERGED from [com.nightonke:boommenu:2.1.1] C:\Users\user\.gradle\caches\transforms-2\files-2.1\320fbabca307cef5beb99e75f359f944\boommenu-2.1.1\AndroidManifest.xml:11:5-14:19
MERGED from [com.nightonke:boommenu:2.1.1] C:\Users\user\.gradle\caches\transforms-2\files-2.1\320fbabca307cef5beb99e75f359f944\boommenu-2.1.1\AndroidManifest.xml:11:5-14:19
MERGED from [androidx.core:core:1.0.1] C:\Users\user\.gradle\caches\transforms-2\files-2.1\cb35faa73e0de0a9b1b60e5f1c161b36\core-1.0.1\AndroidManifest.xml:22:5-89
MERGED from [androidx.core:core:1.0.1] C:\Users\user\.gradle\caches\transforms-2\files-2.1\cb35faa73e0de0a9b1b60e5f1c161b36\core-1.0.1\AndroidManifest.xml:22:5-89
MERGED from [androidx.versionedparcelable:versionedparcelable:1.0.0] C:\Users\user\.gradle\caches\transforms-2\files-2.1\04824058308b4636ae97f3e43d87960f\versionedparcelable-1.0.0\AndroidManifest.xml:22:5-23:19
MERGED from [androidx.versionedparcelable:versionedparcelable:1.0.0] C:\Users\user\.gradle\caches\transforms-2\files-2.1\04824058308b4636ae97f3e43d87960f\versionedparcelable-1.0.0\AndroidManifest.xml:22:5-23:19
	android:appComponentFactory
		ADDED from [androidx.core:core:1.0.1] C:\Users\user\.gradle\caches\transforms-2\files-2.1\cb35faa73e0de0a9b1b60e5f1c161b36\core-1.0.1\AndroidManifest.xml:22:18-86
	android:supportsRtl
		ADDED from D:\android\App_Shinple\bmb\src\main\AndroidManifest.xml:10:9-35
	android:label
		ADDED from D:\android\App_Shinple\bmb\src\main\AndroidManifest.xml:8:9-41
	android:roundIcon
		ADDED from D:\android\App_Shinple\bmb\src\main\AndroidManifest.xml:9:9-54
	android:icon
		ADDED from D:\android\App_Shinple\bmb\src\main\AndroidManifest.xml:7:9-43
	android:allowBackup
		ADDED from D:\android\App_Shinple\bmb\src\main\AndroidManifest.xml:6:9-35
	android:theme
		ADDED from D:\android\App_Shinple\bmb\src\main\AndroidManifest.xml:11:9-40
activity#com.example.boompractice.MainActivity
ADDED from D:\android\App_Shinple\bmb\src\main\AndroidManifest.xml:12:9-18:20
	android:name
		ADDED from D:\android\App_Shinple\bmb\src\main\AndroidManifest.xml:12:19-47
intent-filter#action:name:android.intent.action.MAIN+category:name:android.intent.category.LAUNCHER
ADDED from D:\android\App_Shinple\bmb\src\main\AndroidManifest.xml:13:13-17:29
action#android.intent.action.MAIN
ADDED from D:\android\App_Shinple\bmb\src\main\AndroidManifest.xml:14:17-69
	android:name
		ADDED from D:\android\App_Shinple\bmb\src\main\AndroidManifest.xml:14:25-66
category#android.intent.category.LAUNCHER
ADDED from D:\android\App_Shinple\bmb\src\main\AndroidManifest.xml:16:17-77
	android:name
		ADDED from D:\android\App_Shinple\bmb\src\main\AndroidManifest.xml:16:27-74
uses-sdk
INJECTED from D:\android\App_Shinple\bmb\src\main\AndroidManifest.xml reason: use-sdk injection requested
INJECTED from D:\android\App_Shinple\bmb\src\main\AndroidManifest.xml
INJECTED from D:\android\App_Shinple\bmb\src\main\AndroidManifest.xml
MERGED from [androidx.appcompat:appcompat:1.0.2] C:\Users\user\.gradle\caches\transforms-2\files-2.1\84a39e4acf97978b8330ab4f3cc95027\appcompat-1.0.2\AndroidManifest.xml:20:5-44
MERGED from [androidx.appcompat:appcompat:1.0.2] C:\Users\user\.gradle\caches\transforms-2\files-2.1\84a39e4acf97978b8330ab4f3cc95027\appcompat-1.0.2\AndroidManifest.xml:20:5-44
MERGED from [androidx.constraintlayout:constraintlayout:1.1.3] C:\Users\user\.gradle\caches\transforms-2\files-2.1\65d4ac6b508663c977f57b05ce33dd7a\constraintlayout-1.1.3\AndroidManifest.xml:5:5-7:41
MERGED from [androidx.constraintlayout:constraintlayout:1.1.3] C:\Users\user\.gradle\caches\transforms-2\files-2.1\65d4ac6b508663c977f57b05ce33dd7a\constraintlayout-1.1.3\AndroidManifest.xml:5:5-7:41
MERGED from [com.nightonke:boommenu:2.1.1] C:\Users\user\.gradle\caches\transforms-2\files-2.1\320fbabca307cef5beb99e75f359f944\boommenu-2.1.1\AndroidManifest.xml:7:5-9:41
MERGED from [com.nightonke:boommenu:2.1.1] C:\Users\user\.gradle\caches\transforms-2\files-2.1\320fbabca307cef5beb99e75f359f944\boommenu-2.1.1\AndroidManifest.xml:7:5-9:41
MERGED from [androidx.fragment:fragment:1.0.0] C:\Users\user\.gradle\caches\transforms-2\files-2.1\2d68708550dd45338a0630b5664e74c1\fragment-1.0.0\AndroidManifest.xml:20:5-44
MERGED from [androidx.fragment:fragment:1.0.0] C:\Users\user\.gradle\caches\transforms-2\files-2.1\2d68708550dd45338a0630b5664e74c1\fragment-1.0.0\AndroidManifest.xml:20:5-44
MERGED from [androidx.vectordrawable:vectordrawable-animated:1.0.0] C:\Users\user\.gradle\caches\transforms-2\files-2.1\6fe0a8d0f48f5ccc8a978a00f9a131e3\vectordrawable-animated-1.0.0\AndroidManifest.xml:20:5-44
MERGED from [androidx.vectordrawable:vectordrawable-animated:1.0.0] C:\Users\user\.gradle\caches\transforms-2\files-2.1\6fe0a8d0f48f5ccc8a978a00f9a131e3\vectordrawable-animated-1.0.0\AndroidManifest.xml:20:5-44
MERGED from [androidx.legacy:legacy-support-core-ui:1.0.0] C:\Users\user\.gradle\caches\transforms-2\files-2.1\aa69288ac250be695d760707016eb137\legacy-support-core-ui-1.0.0\AndroidManifest.xml:20:5-44
MERGED from [androidx.legacy:legacy-support-core-ui:1.0.0] C:\Users\user\.gradle\caches\transforms-2\files-2.1\aa69288ac250be695d760707016eb137\legacy-support-core-ui-1.0.0\AndroidManifest.xml:20:5-44
MERGED from [androidx.legacy:legacy-support-core-utils:1.0.0] C:\Users\user\.gradle\caches\transforms-2\files-2.1\a2ac6ff7fcd75d66c466cbf74b5e0977\legacy-support-core-utils-1.0.0\AndroidManifest.xml:20:5-44
MERGED from [androidx.legacy:legacy-support-core-utils:1.0.0] C:\Users\user\.gradle\caches\transforms-2\files-2.1\a2ac6ff7fcd75d66c466cbf74b5e0977\legacy-support-core-utils-1.0.0\AndroidManifest.xml:20:5-44
MERGED from [androidx.vectordrawable:vectordrawable:1.0.1] C:\Users\user\.gradle\caches\transforms-2\files-2.1\d7db156ee1a9df78f41d7ea2c6ac8799\vectordrawable-1.0.1\AndroidManifest.xml:20:5-44
MERGED from [androidx.vectordrawable:vectordrawable:1.0.1] C:\Users\user\.gradle\caches\transforms-2\files-2.1\d7db156ee1a9df78f41d7ea2c6ac8799\vectordrawable-1.0.1\AndroidManifest.xml:20:5-44
MERGED from [androidx.loader:loader:1.0.0] C:\Users\user\.gradle\caches\transforms-2\files-2.1\b336d1f04fa96d7791d186703c4b5e48\loader-1.0.0\AndroidManifest.xml:20:5-44
MERGED from [androidx.loader:loader:1.0.0] C:\Users\user\.gradle\caches\transforms-2\files-2.1\b336d1f04fa96d7791d186703c4b5e48\loader-1.0.0\AndroidManifest.xml:20:5-44
MERGED from [androidx.viewpager:viewpager:1.0.0] C:\Users\user\.gradle\caches\transforms-2\files-2.1\5c681314389bb6f99806e8b09b0fc3d7\viewpager-1.0.0\AndroidManifest.xml:20:5-44
MERGED from [androidx.viewpager:viewpager:1.0.0] C:\Users\user\.gradle\caches\transforms-2\files-2.1\5c681314389bb6f99806e8b09b0fc3d7\viewpager-1.0.0\AndroidManifest.xml:20:5-44
MERGED from [androidx.coordinatorlayout:coordinatorlayout:1.0.0] C:\Users\user\.gradle\caches\transforms-2\files-2.1\ba4615a94a7dad2fec0135d090f8e94a\coordinatorlayout-1.0.0\AndroidManifest.xml:20:5-44
MERGED from [androidx.coordinatorlayout:coordinatorlayout:1.0.0] C:\Users\user\.gradle\caches\transforms-2\files-2.1\ba4615a94a7dad2fec0135d090f8e94a\coordinatorlayout-1.0.0\AndroidManifest.xml:20:5-44
MERGED from [androidx.drawerlayout:drawerlayout:1.0.0] C:\Users\user\.gradle\caches\transforms-2\files-2.1\d1b9d599a9ad57940838fc271d622781\drawerlayout-1.0.0\AndroidManifest.xml:20:5-44
MERGED from [androidx.drawerlayout:drawerlayout:1.0.0] C:\Users\user\.gradle\caches\transforms-2\files-2.1\d1b9d599a9ad57940838fc271d622781\drawerlayout-1.0.0\AndroidManifest.xml:20:5-44
MERGED from [androidx.slidingpanelayout:slidingpanelayout:1.0.0] C:\Users\user\.gradle\caches\transforms-2\files-2.1\d1587ca6d288dd6186d29ddc61c0d53d\slidingpanelayout-1.0.0\AndroidManifest.xml:20:5-44
MERGED from [androidx.slidingpanelayout:slidingpanelayout:1.0.0] C:\Users\user\.gradle\caches\transforms-2\files-2.1\d1587ca6d288dd6186d29ddc61c0d53d\slidingpanelayout-1.0.0\AndroidManifest.xml:20:5-44
MERGED from [androidx.customview:customview:1.0.0] C:\Users\user\.gradle\caches\transforms-2\files-2.1\cc44a1dc5c1ee36c4b15c220a66af9a9\customview-1.0.0\AndroidManifest.xml:20:5-44
MERGED from [androidx.customview:customview:1.0.0] C:\Users\user\.gradle\caches\transforms-2\files-2.1\cc44a1dc5c1ee36c4b15c220a66af9a9\customview-1.0.0\AndroidManifest.xml:20:5-44
MERGED from [androidx.swiperefreshlayout:swiperefreshlayout:1.0.0] C:\Users\user\.gradle\caches\transforms-2\files-2.1\09bcd126475fef88c077907553299c09\swiperefreshlayout-1.0.0\AndroidManifest.xml:20:5-44
MERGED from [androidx.swiperefreshlayout:swiperefreshlayout:1.0.0] C:\Users\user\.gradle\caches\transforms-2\files-2.1\09bcd126475fef88c077907553299c09\swiperefreshlayout-1.0.0\AndroidManifest.xml:20:5-44
MERGED from [androidx.asynclayoutinflater:asynclayoutinflater:1.0.0] C:\Users\user\.gradle\caches\transforms-2\files-2.1\11e3b9ed509609d71e516ae144b6049a\asynclayoutinflater-1.0.0\AndroidManifest.xml:20:5-44
MERGED from [androidx.asynclayoutinflater:asynclayoutinflater:1.0.0] C:\Users\user\.gradle\caches\transforms-2\files-2.1\11e3b9ed509609d71e516ae144b6049a\asynclayoutinflater-1.0.0\AndroidManifest.xml:20:5-44
MERGED from [androidx.core:core:1.0.1] C:\Users\user\.gradle\caches\transforms-2\files-2.1\cb35faa73e0de0a9b1b60e5f1c161b36\core-1.0.1\AndroidManifest.xml:20:5-44
MERGED from [androidx.core:core:1.0.1] C:\Users\user\.gradle\caches\transforms-2\files-2.1\cb35faa73e0de0a9b1b60e5f1c161b36\core-1.0.1\AndroidManifest.xml:20:5-44
MERGED from [androidx.versionedparcelable:versionedparcelable:1.0.0] C:\Users\user\.gradle\caches\transforms-2\files-2.1\04824058308b4636ae97f3e43d87960f\versionedparcelable-1.0.0\AndroidManifest.xml:20:5-44
MERGED from [androidx.versionedparcelable:versionedparcelable:1.0.0] C:\Users\user\.gradle\caches\transforms-2\files-2.1\04824058308b4636ae97f3e43d87960f\versionedparcelable-1.0.0\AndroidManifest.xml:20:5-44
MERGED from [androidx.cursoradapter:cursoradapter:1.0.0] C:\Users\user\.gradle\caches\transforms-2\files-2.1\0c7c84c7323d6ddfd4bfb4da2d345f93\cursoradapter-1.0.0\AndroidManifest.xml:20:5-44
MERGED from [androidx.cursoradapter:cursoradapter:1.0.0] C:\Users\user\.gradle\caches\transforms-2\files-2.1\0c7c84c7323d6ddfd4bfb4da2d345f93\cursoradapter-1.0.0\AndroidManifest.xml:20:5-44
MERGED from [androidx.lifecycle:lifecycle-runtime:2.0.0] C:\Users\user\.gradle\caches\transforms-2\files-2.1\17bbd9c554b0bbff0e21d86ee90011c6\lifecycle-runtime-2.0.0\AndroidManifest.xml:20:5-44
MERGED from [androidx.lifecycle:lifecycle-runtime:2.0.0] C:\Users\user\.gradle\caches\transforms-2\files-2.1\17bbd9c554b0bbff0e21d86ee90011c6\lifecycle-runtime-2.0.0\AndroidManifest.xml:20:5-44
MERGED from [androidx.documentfile:documentfile:1.0.0] C:\Users\user\.gradle\caches\transforms-2\files-2.1\2ed27cdf03339aa6677bdf83642fd229\documentfile-1.0.0\AndroidManifest.xml:20:5-44
MERGED from [androidx.documentfile:documentfile:1.0.0] C:\Users\user\.gradle\caches\transforms-2\files-2.1\2ed27cdf03339aa6677bdf83642fd229\documentfile-1.0.0\AndroidManifest.xml:20:5-44
MERGED from [androidx.localbroadcastmanager:localbroadcastmanager:1.0.0] C:\Users\user\.gradle\caches\transforms-2\files-2.1\390865cfbff283803a888b45498cca2f\localbroadcastmanager-1.0.0\AndroidManifest.xml:20:5-44
MERGED from [androidx.localbroadcastmanager:localbroadcastmanager:1.0.0] C:\Users\user\.gradle\caches\transforms-2\files-2.1\390865cfbff283803a888b45498cca2f\localbroadcastmanager-1.0.0\AndroidManifest.xml:20:5-44
MERGED from [androidx.print:print:1.0.0] C:\Users\user\.gradle\caches\transforms-2\files-2.1\50f1f889ccb073fa814729df00d55940\print-1.0.0\AndroidManifest.xml:20:5-44
MERGED from [androidx.print:print:1.0.0] C:\Users\user\.gradle\caches\transforms-2\files-2.1\50f1f889ccb073fa814729df00d55940\print-1.0.0\AndroidManifest.xml:20:5-44
MERGED from [androidx.lifecycle:lifecycle-viewmodel:2.0.0] C:\Users\user\.gradle\caches\transforms-2\files-2.1\c6bc9ed69d60287150ece3672a1e6e22\lifecycle-viewmodel-2.0.0\AndroidManifest.xml:20:5-44
MERGED from [androidx.lifecycle:lifecycle-viewmodel:2.0.0] C:\Users\user\.gradle\caches\transforms-2\files-2.1\c6bc9ed69d60287150ece3672a1e6e22\lifecycle-viewmodel-2.0.0\AndroidManifest.xml:20:5-44
MERGED from [androidx.lifecycle:lifecycle-livedata:2.0.0] C:\Users\user\.gradle\caches\transforms-2\files-2.1\0afdb6b988b3d5ba9edacc8dbbdba1b5\lifecycle-livedata-2.0.0\AndroidManifest.xml:20:5-44
MERGED from [androidx.lifecycle:lifecycle-livedata:2.0.0] C:\Users\user\.gradle\caches\transforms-2\files-2.1\0afdb6b988b3d5ba9edacc8dbbdba1b5\lifecycle-livedata-2.0.0\AndroidManifest.xml:20:5-44
MERGED from [androidx.lifecycle:lifecycle-livedata-core:2.0.0] C:\Users\user\.gradle\caches\transforms-2\files-2.1\8c0ea0338d4adfc31979d299a783a195\lifecycle-livedata-core-2.0.0\AndroidManifest.xml:20:5-44
MERGED from [androidx.lifecycle:lifecycle-livedata-core:2.0.0] C:\Users\user\.gradle\caches\transforms-2\files-2.1\8c0ea0338d4adfc31979d299a783a195\lifecycle-livedata-core-2.0.0\AndroidManifest.xml:20:5-44
MERGED from [androidx.arch.core:core-runtime:2.0.0] C:\Users\user\.gradle\caches\transforms-2\files-2.1\8807b796c5c6f7185f5e2bcf79836887\core-runtime-2.0.0\AndroidManifest.xml:20:5-44
MERGED from [androidx.arch.core:core-runtime:2.0.0] C:\Users\user\.gradle\caches\transforms-2\files-2.1\8807b796c5c6f7185f5e2bcf79836887\core-runtime-2.0.0\AndroidManifest.xml:20:5-44
MERGED from [androidx.interpolator:interpolator:1.0.0] C:\Users\user\.gradle\caches\transforms-2\files-2.1\b20c975e604faaf5e0a8a28a82435b32\interpolator-1.0.0\AndroidManifest.xml:20:5-44
MERGED from [androidx.interpolator:interpolator:1.0.0] C:\Users\user\.gradle\caches\transforms-2\files-2.1\b20c975e604faaf5e0a8a28a82435b32\interpolator-1.0.0\AndroidManifest.xml:20:5-44
INJECTED from D:\android\App_Shinple\bmb\src\main\AndroidManifest.xml
INJECTED from D:\android\App_Shinple\bmb\src\main\AndroidManifest.xml
	android:targetSdkVersion
		INJECTED from D:\android\App_Shinple\bmb\src\main\AndroidManifest.xml
		ADDED from D:\android\App_Shinple\bmb\src\main\AndroidManifest.xml
		INJECTED from D:\android\App_Shinple\bmb\src\main\AndroidManifest.xml
	android:minSdkVersion
		INJECTED from D:\android\App_Shinple\bmb\src\main\AndroidManifest.xml
		ADDED from D:\android\App_Shinple\bmb\src\main\AndroidManifest.xml
		INJECTED from D:\android\App_Shinple\bmb\src\main\AndroidManifest.xml
